M48
INCH,TZ
VER,1
FMAT,2
DETECT,ON
ATC,ON
T1C0.10827
T2C0.02362
T3C0.03937
T4C0.06350
T5C0.03500
T6C0.03917
T7C0.12583
T8C0.03333
%
T1
X13780Y13780
X242126
Y206693
X13780
T2
X92005Y32090
X58005Y34090
X225848Y110519
X76241Y31440
X39172Y100005
X193976Y91907
X83072Y148090
X109186Y86090
X212922Y96000
X170982Y146704
X177915Y163005
X159542Y157469
X157749Y163230
X217502Y85804
X210884Y65894
X232378Y64655
X215290Y36622
X129542Y134385
X128717Y149753
X164379Y123808
X54614Y41267
X78871Y47410
X73458Y52508
X35531Y142754
X145703Y116539
X153217Y112787
X39059Y136697
X41337Y124206
X197567Y36497
X162195Y52394
X201740Y44222
T3
X16148Y78090
Y97775
Y37917
Y57602
Y118279
Y137964
T4
X52157Y91000
Y173677
X73118Y91000
Y173677
X114943Y174565
Y91888
X93927Y174565
Y91888
X64500Y144953
X61624Y114975
T5
X33353Y212093
X43353
Y202093
X53353
X123353
X133353
X143353
X73353
X53353Y212093
X93353
X123353
X153353Y202093
X173353Y212093
X193353
X223353Y202093
X113353
X73353Y212093
X63353Y202093
Y212093
X93353Y202093
X103353
X83353Y212093
Y202093
X153353Y212093
X113353
X103353
X133353
X143353
X173353Y202093
X183353
Y212093
X193353Y202093
X203353
Y212093
X223353
X163353Y202093
Y212093
X213353Y202093
Y212093
X45874Y184353
X25874
X108584Y189638
X98584
X164720Y189638
X154720
X184720
X174720
X194720
X240966Y139334
Y158501
X248005Y105287
X238005
Y95287
X114176Y7175
X139843
X114176Y24841
X139843
X119955Y42616
X129955
X139955
X248005Y48090
X238005
Y38090
X182727Y46127
X172727
X192727
X187727Y36127
X177727
T6
X33353Y202093
X118584Y189638
X144720Y189638
X248005Y95287
X149955Y42616
X248005Y38090
T7
X165227Y11127
X205227
T8
X197727Y36127
M30
